TKCat User guide
…
The count_records() function can take a lot of time when dealing with fileMDB objects if the data files are very large. In such case it could be more clever to list data file size.

data_file_size(file_clinvar, hr=TRUE)

## # A tibble: 21 × 3
##    table                             size   compressed
##    <chr>                             <chr>  <lgl>     
##  1 ClinVar_ReferenceClinVarAssertion 4.6 KB TRUE      
##  2 ClinVar_rcvaVariant               947 B  TRUE      
##  3 ClinVar_ClinVarAssertions         4.2 KB TRUE      
##  4 ClinVar_rcvaInhMode               152 B  TRUE      
##  5 ClinVar_rcvaObservedIn            1.4 KB TRUE      
##  6 ClinVar_rcvaTraits                788 B  TRUE      
##  7 ClinVar_clinSigOrder              145 B  TRUE      
##  8 ClinVar_revStatOrder              101 B  TRUE      
##  9 ClinVar_variants                  2.1 KB TRUE      
## 10 ClinVar_cvaObservedIn             1.8 KB TRUE      
## # … with 11 more rows

2.4 Pulling, subsetting and combining

There are several possible ways to pull data tables from MDBs. The following lines return the same results.

data_tables(file_clinvar, "ClinVar_traitNames")[[1]]
file_clinvar[["ClinVar_traitNames"]]
file_clinvar$"ClinVar_traitNames"

file_clinvar %>% pull(ClinVar_traitNames)

## # A tibble: 44 × 3
##     t.id name                                                           type    
##    <int> <chr>                                                          <chr>   
##  1   912 Chudley-McCullough syndrome                                    Preferr…
##  2   912 Deafness, autosomal recessive 82                               Alterna…
##  3   912 Deafness, bilateral sensorineural, and hydrocephalus due to f… Alterna…
##  4   912 Deafness, sensorineural, with partial agenesis of the corpus … Alterna…
##  5  1352 CTSD-Related Neuronal Ceroid-Lipofuscinosis                    Alterna…
##  6  1352 Ceroid lipofuscinosis neuronal Cathepsin D-deficient           Alterna…
##  7  1352 Neuronal ceroid lipofuscinosis 10                              Preferr…
##  8  1352 Neuronal ceroid lipofuscinosis due to Cathepsin D deficiency   Alterna…
##  9  1481 Diabetes mellitus, neonatal, with congenital hypothyroidism    Preferr…
## 10  1481 NDH SYNDROME                                                   Alterna…
## # … with 34 more rows
…
