TKCat User guide
…
2.4 Pulling, subsetting and combining

There are several possible ways to pull data tables from MDBs. The following lines return the same results.

data_tables(file_clinvar, "ClinVar_traitNames")[[1]]
file_clinvar[["ClinVar_traitNames"]]
file_clinvar$"ClinVar_traitNames"

file_clinvar %>% pull(ClinVar_traitNames)

## # A tibble: 44 x 3
##     t.id name                                                           type    
##    <int> <chr>                                                          <chr>   
##  1   912 Chudley-McCullough syndrome                                    Preferr
##  2   912 Deafness, autosomal recessive 82                               Alterna
##  3   912 Deafness, bilateral sensorineural, and hydrocephalus due to f Alterna
##  4   912 Deafness, sensorineural, with partial agenesis of the corpus  Alterna
##  5  1352 CTSD-Related Neuronal Ceroid-Lipofuscinosis                    Alterna
##  6  1352 Ceroid lipofuscinosis neuronal Cathepsin D-deficient           Alterna
##  7  1352 Neuronal ceroid lipofuscinosis 10                              Preferr
##  8  1352 Neuronal ceroid lipofuscinosis due to Cathepsin D deficiency   Alterna
##  9  1481 Diabetes mellitus, neonatal, with congenital hypothyroidism    Preferr
## 10  1481 NDH SYNDROME                                                   Alterna
## #  with 34 more rows
…
