Introduction to TKCat • TKCat
…
A subset of the HPO is provided within the ReDaMoR package. We can
read some of the tables as follow:

library(readr)
hpo_data_dir <- system.file("examples/HPO-subset", package="ReDaMoR")

The HPO_hp table gathers human phenotype identifiers,
names and descriptions:

HPO_hp <- readr::read_tsv(
   file.path(hpo_data_dir, "HPO_hp.txt")
)
HPO_hp

## # A tibble: 500 × 4
##    id      name                                              description   level
##    <chr>   <chr>                                             <chr>         <dbl>
##  1 0000002 Abnormality of body height                        Deviation fr…     3
##  2 0000009 Functional abnormality of the bladder             Dysfunction …     6
##  3 0000014 Abnormality of the bladder                        An abnormali…     5
##  4 0000017 Nocturia                                          Abnormally i…     7
##  5 0000019 Urinary hesitancy                                 Difficulty i…     7
##  6 0000021 Megacystis                                        Dilatation o…     8
##  7 0000022 Abnormality of male internal genitalia            An abnormali…     6
##  8 0000024 Prostatitis                                       The presence…     8
##  9 0000025 Functional abnormality of male internal genitalia NA                6
## 10 0000030 Testicular gonadoblastoma                         The presence…     9
## # ℹ 490 more rows

The HPO_diseases table gathers disease identifiers and
labels from different disease database.

HPO_diseases <- readr::read_tsv(
   file.path(hpo_data_dir, "HPO_diseases.txt")
)
HPO_diseases

## # A tibble: 1,903 × 3
##    db           id label                                                        
##    <chr>     <dbl> <chr>                                                        
##  1 DECIPHER     15 NF1-microdeletion syndrome                                   
##  2 DECIPHER     45 Xq28 (MECP2) duplication                                     
##  3 DECIPHER     65 ATR-16 syndrome                                              
##  4 OMIM     100050 AARSKOG SYNDROME, AUTOSOMAL DOMINANT                         
##  5 OMIM     100650 ALDEHYDE DEHYDROGENASE 2 FAMILY                              
##  6 OMIM     101800 ACRODYSOSTOSIS 1, WITH OR WITHOUT HORMONE RESISTANCE; ACRDYS1
##  7 OMIM     102500 HAJDU-CHENEY SYNDROME; HJCYS                                 
##  8 OMIM     102510 ACROPECTOROVERTEBRAL DYSPLASIA, F-FORM OF                    
##  9 OMIM     102700 SEVERE COMBINED IMMUNODEFICIENCY, AUTOSOMAL RECESSIVE, T CEL…
## 10 OMIM     102800 ADENOSINE TRIPHOSPHATASE DEFICIENCY, ANEMIA DUE TO           
## # ℹ 1,893 more rows

The HPO_diseaseHP table indicates which phenotype is
triggered by each disease.

HPO_diseaseHP <- readr::read_tsv(
   file.path(hpo_data_dir, "HPO_diseaseHP.txt")
)
HPO_diseaseHP

## # A tibble: 2,594 × 3
##    db           id hp     
##    <chr>     <dbl> <chr>  
##  1 ORPHA    140976 0000002
##  2 ORPHA       432 0000002
##  3 DECIPHER     45 0000009
##  4 OMIM     300076 0000009
##  5 ORPHA    100996 0000009
##  6 ORPHA    100997 0000009
##  7 ORPHA      2571 0000009
##  8 ORPHA    391487 0000009
##  9 ORPHA    488594 0000009
## 10 ORPHA     71211 0000009
## # ℹ 2,584 more rows
…
When calling add_collection_member(), these arguments
must be provided as a list with 2 elements named “value” (a character)
and “static” (a logical). If “static” is TRUE, “value” corresponds to
the information shared by all the rows of the table. If “static” is
FALSE, “value” indicates the name of the column which provides this
information for each row.

The example below shows how the HPO_hp table is documented
as a member of the Condition collection.

mhpo_db$HPO_hp

## # A tibble: 500 × 4
##    id      name                                              description   level
##    <chr>   <chr>                                             <chr>         <int>
##  1 0000002 Abnormality of body height                        Deviation fr…     3
##  2 0000009 Functional abnormality of the bladder             Dysfunction …     6
##  3 0000014 Abnormality of the bladder                        An abnormali…     5
##  4 0000017 Nocturia                                          Abnormally i…     7
##  5 0000019 Urinary hesitancy                                 Difficulty i…     7
##  6 0000021 Megacystis                                        Dilatation o…     8
##  7 0000022 Abnormality of male internal genitalia            An abnormali…     6
##  8 0000024 Prostatitis                                       The presence…     8
##  9 0000025 Functional abnormality of male internal genitalia NA                6
## 10 0000030 Testicular gonadoblastoma                         The presence…     9
## # ℹ 490 more rows
…
The count_records() function can take a lot of time when
dealing with fileMDB objects if the data files are very large.
In such case it could be more efficient to list data file size
instead.

data_file_size(file_clinvar, hr=TRUE)

## # A tibble: 21 × 3
##    table                     size   compressed
##    <chr>                     <chr>  <lgl>     
##  1 ReferenceClinVarAssertion 4.6 KB TRUE      
##  2 rcvaVariant               947 B  TRUE      
##  3 ClinVarAssertions         4.2 KB TRUE      
##  4 rcvaInhMode               152 B  TRUE      
##  5 rcvaObservedIn            1.4 KB TRUE      
##  6 rcvaTraits                788 B  TRUE      
##  7 clinSigOrder              145 B  TRUE      
##  8 revStatOrder              101 B  TRUE      
##  9 variants                  2.1 KB TRUE      
## 10 cvaObservedIn             1.8 KB TRUE      
## # ℹ 11 more rows

Pulling, subsetting and combining

There are several possible ways to pull data tables from MDBs. The
following lines return the same result displayed below (only once).

data_tables(file_clinvar, "traitNames")[[1]]
file_clinvar[["traitNames"]]
file_clinvar$"traitNames"
file_clinvar %>% pull(traitNames)

## # A tibble: 44 × 3
##     t.id name                                                              type 
##    <int> <chr>                                                             <chr>
##  1   912 Chudley-McCullough syndrome                                       Pref…
##  2   912 Deafness, autosomal recessive 82                                  Alte…
##  3   912 Deafness, bilateral sensorineural, and hydrocephalus due to fora… Alte…
##  4   912 Deafness, sensorineural, with partial agenesis of the corpus cal… Alte…
##  5  1352 CTSD-Related Neuronal Ceroid-Lipofuscinosis                       Alte…
##  6  1352 Ceroid lipofuscinosis neuronal Cathepsin D-deficient              Alte…
##  7  1352 Neuronal ceroid lipofuscinosis 10                                 Pref…
##  8  1352 Neuronal ceroid lipofuscinosis due to Cathepsin D deficiency      Alte…
##  9  1481 Diabetes mellitus, neonatal, with congenital hypothyroidism       Pref…
## 10  1481 NDH SYNDROME                                                      Alte…
## # ℹ 34 more rows
…
      entrezNames = symbol %in% c("PIK3R2", "UGT1A8")
   ) %>% 
   slice(ReferenceClinVarAssertion=grep(
      "pathogen",
      .$ReferenceClinVarAssertion$clinicalSignificance,
      ignore.case=TRUE
   ))
left_join(
   dims(file_clinvar) %>% select(name, nrow),
   dims(filtered_clinvar) %>% select(name, nrow),
   by="name",
   suffix=c("_ori", "_filt")
)

## # A tibble: 21 × 3
##    name                      nrow_ori nrow_filt
##    <chr>                        <dbl>     <int>
##  1 ReferenceClinVarAssertion      166         4
##  2 rcvaVariant                    166         4
##  3 ClinVarAssertions              409        15
##  4 rcvaInhMode                     16         0
##  5 rcvaObservedIn                 337        10
##  6 rcvaTraits                     166         4
##  7 clinSigOrder                    11         3
##  8 revStatOrder                     2         1
##  9 variants                       138         3
## 10 cvaObservedIn                  412        15
## # ℹ 11 more rows
…
Collections and collection members

As explained above, some databases refer
to the same concepts and could be integrated accordingly. However they
often use different vocabularies.

For example, both CHEMBL and ClinVar refer to biological entities (BE) for
documenting drug targets or disease causal genes. CHEMBL refers to drug
target in the CHEMBL_component_sequence table using mainly
Uniprot peptide identifiers from different species.

file_chembl$CHEMBL_component_sequence

## # A tibble: 35 × 5
##    component_id accession organism                  db_source db_version
##           <int> <chr>     <chr>                     <chr>     <chr>     
##  1          259 P15260    Homo sapiens              Uniprot   2019_09   
##  2          327 Q99062    Homo sapiens              Uniprot   2019_09   
##  3          752 P35563    Rattus norvegicus         Uniprot   2019_09   
##  4          917 P07339    Homo sapiens              Uniprot   2019_09   
##  5         1807 Q54A96    Plasmodium falciparum     Uniprot   2019_09   
##  6         2180 P67774    Bos taurus                Uniprot   2019_09   
##  7         2398 P25098    Homo sapiens              Uniprot   2019_09   
##  8         2541 Q8II92    Plasmodium falciparum 3D7 Uniprot   2019_09   
##  9         3803 Q64346    Rattus norvegicus         Uniprot   2019_09   
## 10         4395 O60502    Homo sapiens              Uniprot   2019_09   
## # ℹ 25 more rows
…
The merge() function gather the two MDBs in one
metaMDB and create a association table based on the
by argument. This association table
(“HPO_diseases_traitCref”) is displayed in yellow in the data model of
the created metaMDB as shown below.

hpo_clinvar <- merge(
   file_hpo, file_clinvar, by=sel_coll, dmAutoLayout=igraph_available
)
plot(data_model(hpo_clinvar))

hpo_clinvar$HPO_diseases_traitCref

## # A tibble: 1,950 × 2
##    db       id    
##    <chr>    <chr> 
##  1 DECIPHER 15    
##  2 DECIPHER 45    
##  3 DECIPHER 65    
##  4 OMIM     100050
##  5 OMIM     100650
##  6 OMIM     101800
##  7 OMIM     102500
##  8 OMIM     102510
##  9 OMIM     102700
## 10 OMIM     102800
## # ℹ 1,940 more rows
…
